{
  "org.apache.sling.commons.log.pattern": "{0,date,yyyy-MM-dd HH:mm:ss.SSS} {4} [{3}] {5}",
  "org.apache.sling.commons.log.names": [
    "com.ehi.marketplace"
  ],
  "org.apache.sling.commons.log.level": "WARN",
  "org.apache.sling.commons.log.file": "logs/error.log",
  "org.apache.sling.commons.log.additiv": "true"
}
